(Exported by FreeCAD)
(Post Processor: linuxcnc_post)
(Output Time:2021-12-19 21:18:20.176219)
(begin preamble)
G17 G54 G40 G49 G80 G90
G21
(begin operation: T1: Schaftfräser 4.5mm)
(machine: not set, mm/min)
(T1: Schaftfräser 4.5mm) 
M5
M6 T1 
G43 H1 
M3 S1000 
(finish operation: T1: Schaftfräser 4.5mm)
(begin operation: Fixture)
(machine: not set, mm/min)
G54 
G0 Z4.000 
(finish operation: Fixture)
(begin operation: Profile)
(machine: not set, mm/min)
(Profile) 
(Compensated Tool Path. Diameter: 5.0) 
G0 Z4.000 
G0 X9.545 Y9.545 
G0 Z3.000 
G1 X9.545 Y9.545 Z-2.000 F30.000 
G2 X1.391 Y-13.427 Z-2.000 I-9.545 J-9.545 F250.000 
G2 X-1.391 Y13.427 Z-2.000 I-1.391 J13.427 F250.000 
G2 X9.545 Y9.545 Z-2.000 I1.391 J-13.427 F250.000 
G1 X9.545 Y9.545 Z-4.000 F30.000 
G2 X1.391 Y-13.427 Z-4.000 I-9.545 J-9.545 F250.000 
G2 X-1.391 Y13.427 Z-4.000 I-1.391 J13.427 F250.000 
G2 X9.545 Y9.545 Z-4.000 I1.391 J-13.427 F250.000 
G0 Z4.000 
G0 Z4.000 
(finish operation: Profile)
(begin postamble)
M05
G17 G54 G90 G80 G40
M2
